              precision    recall  f1-score   support

       Lulus       1.00      1.00      1.00        34
   Terlambat       1.00      1.00      1.00        20

    accuracy                           1.00        54
   macro avg       1.00      1.00      1.00        54
weighted avg       1.00      1.00      1.00        54
